module gitlab.com/gitlab-org/opstrace/smoke-test

go 1.19

require github.com/getsentry/sentry-go v0.15.0

require (
	github.com/davecgh/go-spew v1.1.1 // indirect
	github.com/pmezard/go-difflib v1.0.0 // indirect
	github.com/stretchr/objx v0.5.0 // indirect
	github.com/stretchr/testify v1.8.1 // indirect
	golang.org/x/sys v0.0.0-20220928140112-f11e5e49a4ec // indirect
	golang.org/x/text v0.3.7 // indirect
	gopkg.in/yaml.v3 v3.0.1 // indirect
)
